Junk/PC.vcd
$date
	Sat Jan 18 12:14:55 2025
$end
$version
	Icarus Verilog
$end
$timescale
	1s
$end
$scope module PC_tb $end
$var wire 6 ! PC_Out [5:0] $end
$var reg 1 " Clk $end
$var reg 6 # Dest_Reg [5:0] $end
$var reg 1 $ PC_Clr $end
$var reg 1 % PC_Inc $end
$var reg 1 & PC_Load $end
$var integer 32 ' file [31:0] $end
$var integer 32 ( test [31:0] $end
$scope module program_counter $end
$var wire 1 " Clk $end
$var wire 6 ) Dest_Reg [5:0] $end
$var wire 1 $ PC_Clr $end
$var wire 1 % PC_Inc $end
$var wire 1 & PC_Load $end
$var reg 6 * PC_Out [5:0] $end
$upscope $end
$upscope $end
$enddefinitions $end
$comment Show the parameter values. $end
$dumpall
$end
#0
$dumpvars
bx *
b0 )
b0 (
b10000000000000000000000000000011 '
0&
0%
1$
b0 #
0"
bx !
$end
#5
b0 !
b0 *
1"
#10
0"
b100 #
b100 )
1%
1&
0$
#15
b100 !
b100 *
1"
#20
0"
b1 (
#25
1"
#30
0"
b111011 #
b111011 )
1$
#35
b0 !
b0 *
1"
#40
0"
b10 (
#45
1"
#50
0"
b11110 #
b11110 )
0%
#55
1"
#60
0"
b11 (
#65
1"
#70
0"
b111010 #
b111010 )
1%
0&
#75
1"
#80
0"
b100 (
#85
1"
#90
0"
b11011 #
b11011 )
#95
1"
#100
0"
b101 (
#105
1"
#110
0"
b100101 #
b100101 )
0%
1&
0$
#115
b100101 !
b100101 *
1"
#120
0"
b110 (
#125
1"
#130
0"
b110111 #
b110111 )
#135
b110111 !
b110111 *
1"
#140
0"
b111 (
#145
1"
#150
0"
b1101 #
b1101 )
1%
1$
#155
b0 !
b0 *
1"
#160
0"
b1000 (
#165
1"
#170
0"
b10010 #
b10010 )
0%
0&
0$
#175
1"
#180
0"
b1001 (
#185
1"
#190
0"
b110111 #
b110111 )
1%
1&
#195
b110111 !
b110111 *
1"
#200
0"
b1010 (
#205
1"
#210
0"
b11000 #
b11000 )
0%
1$
#215
b0 !
b0 *
1"
#220
0"
b1011 (
#225
1"
#230
0"
b1101 #
b1101 )
1%
#235
1"
#240
0"
b1100 (
#245
1"
#250
0"
b100001 #
b100001 )
0%
0&
0$
#255
1"
#260
0"
b1101 (
#265
1"
#270
0"
b1 #
b1 )
1$
#275
1"
#280
0"
b1110 (
#285
1"
#290
0"
b0 #
b0 )
#295
1"
#300
0"
b1111 (
#305
1"
#310
0"
b101 #
b101 )
1%
0$
#315
b1 !
b1 *
1"
#320
0"
b10000 (
#325
b10 !
b10 *
1"
#330
0"
b101010 #
b101010 )
1&
1$
#335
b0 !
b0 *
1"
#340
0"
b10001 (
#345
1"
#350
0"
b110001 #
b110001 )
0$
#355
b110001 !
b110001 *
1"
#360
0"
b10010 (
#365
1"
#370
0"
b111010 #
b111010 )
0&
#375
b110010 !
b110010 *
1"
#380
0"
b10011 (
#385
b110011 !
b110011 *
1"
#390
0"
b110011 #
b110011 )
1&
#395
1"
#400
0"
b10100 (
#405
1"
#410
0"
b100111 #
b100111 )
1$
#415
b0 !
b0 *
1"
#420
0"
b10101 (
#425
1"
#430
0"
b100101 #
b100101 )
0%
#435
1"
#440
0"
b10110 (
#445
1"
#450
0"
b10111 #
b10111 )
1%
0&
0$
#455
b1 !
b1 *
1"
#460
0"
b10111 (
#465
b10 !
b10 *
1"
#470
0"
b11111 #
b11111 )
#475
b11 !
b11 *
1"
#480
0"
b11000 (
#485
b100 !
b100 *
1"
#490
0"
b10101 #
b10101 )
1&
1$
#495
b0 !
b0 *
1"
#500
0"
b11001 (
#505
1"
#510
0"
b1000 #
b1000 )
#515
1"
#520
0"
b11010 (
#525
1"
#530
0"
b10010 #
b10010 )
0%
0&
0$
#535
1"
#540
0"
b11011 (
#545
1"
#550
0"
b111010 #
b111010 )
1%
#555
b1 !
b1 *
1"
#560
0"
b11100 (
#565
b10 !
b10 *
1"
#570
0"
b110110 #
b110110 )
1&
1$
#575
b0 !
b0 *
1"
#580
0"
b11101 (
#585
1"
#590
0"
b11011 #
b11011 )
0%
#595
1"
#600
0"
b11110 (
#605
1"
#610
0"
b10001 #
b10001 )
#615
1"
#620
0"
b11111 (
#625
1"
#630
0"
b111011 #
b111011 )
1%
#635
1"
#640
0"
b100000 (
#645
1"
#650
0"
b111001 #
b111001 )
0&
0$
#655
b1 !
b1 *
1"
#660
0"
b100001 (
#665
b10 !
b10 *
1"
#670
0"
b101101 #
b101101 )
#675
b11 !
b11 *
1"
#680
0"
b100010 (
#685
b100 !
b100 *
1"
#690
0"
b110 #
b110 )
#695
b101 !
b101 *
1"
#700
0"
b100011 (
#705
b110 !
b110 *
1"
#710
0"
b110010 #
b110010 )
#715
b111 !
b111 *
1"
#720
0"
b100100 (
#725
b1000 !
b1000 *
1"
#730
0"
b101011 #
b101011 )
0%
1&
#735
b101011 !
b101011 *
1"
#740
0"
b100101 (
#745
1"
#750
0"
b100011 #
b100011 )
1%
1$
#755
b0 !
b0 *
1"
#760
0"
b100110 (
#765
1"
#770
0"
b101001 #
b101001 )
0%
0&
0$
#775
1"
#780
0"
b100111 (
#785
1"
#790
0"
b11000 #
b11000 )
1%
#795
b1 !
b1 *
1"
#800
0"
b101000 (
#805
b10 !
b10 *
1"
#810
0"
b1111 #
b1111 )
0%
#815
1"
#820
0"
b101001 (
#825
1"
#830
0"
b11000 #
b11000 )
1$
#835
b0 !
b0 *
1"
#840
0"
b101010 (
#845
1"
#850
0"
b110010 #
b110010 )
1&
#855
1"
#860
0"
b101011 (
#865
1"
#870
0"
b11101 #
b11101 )
0$
#875
b11101 !
b11101 *
1"
#880
0"
b101100 (
#885
1"
#890
0"
b110010 #
b110010 )
0&
1$
#895
b0 !
b0 *
1"
#900
0"
b101101 (
#905
1"
#910
0"
b100000 #
b100000 )
1%
#915
1"
#920
0"
b101110 (
#925
1"
#930
0"
b110110 #
b110110 )
0%
0$
#935
1"
#940
0"
b101111 (
#945
1"
#950
0"
b110011 #
b110011 )
1$
#955
1"
#960
0"
b110000 (
#965
1"
#970
0"
b11101 #
b11101 )
1%
1&
0$
#975
b11101 !
b11101 *
1"
#980
0"
b110001 (
#985
1"
#990
0"
b101001 #
b101001 )
#995
b101001 !
b101001 *
1"
#1000
0"
b110010 (
#1005
1"
#1010
0"
b1010 #
b1010 )
0&
#1015
b101010 !
b101010 *
1"
#1020
0"
b110011 (
#1025
b101011 !
b101011 *
1"
#1030
0"
b101100 #
b101100 )
1&
1$
#1035
b0 !
b0 *
1"
#1040
0"
b110100 (
#1045
1"
#1050
0"
b100010 #
b100010 )
0%
#1055
1"
#1060
0"
b110101 (
#1065
1"
#1070
0"
b110101 #
b110101 )
1%
0&
0$
#1075
b1 !
b1 *
1"
#1080
0"
b110110 (
#1085
b10 !
b10 *
1"
#1090
0"
b11000 #
b11000 )
#1095
b11 !
b11 *
1"
#1100
0"
b110111 (
#1105
b100 !
b100 *
1"
#1110
0"
b111111 #
b111111 )
0%
1&
#1115
b111111 !
b111111 *
1"
#1120
0"
b111000 (
#1125
1"
#1130
0"
b1011 #
b1011 )
0&
1$
#1135
b0 !
b0 *
1"
#1140
0"
b111001 (
#1145
1"
#1150
0"
b110110 #
b110110 )
1&
#1155
1"
#1160
0"
b111010 (
#1165
1"
#1170
0"
b10 #
b10 )
0$
#1175
b10 !
b10 *
1"
#1180
0"
b111011 (
#1185
1"
#1190
0"
b101 #
b101 )
0&
1$
#1195
b0 !
b0 *
1"
#1200
0"
b111100 (
#1205
1"
#1210
0"
b1001 #
b1001 )
1&
0$
#1215
b1001 !
b1001 *
1"
#1220
0"
b111101 (
#1225
1"
#1230
0"
b101110 #
b101110 )
1%
#1235
b101110 !
b101110 *
1"
#1240
0"
b111110 (
#1245
1"
#1250
0"
b101 #
b101 )
1$
#1255
b0 !
b0 *
1"
#1260
0"
b111111 (
#1265
1"
#1270
0"
b1001 #
b1001 )
0$
#1275
b1001 !
b1001 *
1"
#1280
0"
b1000000 (
