Junk/PROCESSOR.vcd
$date
	Tue Jan 14 17:41:07 2025
$end
$version
	Icarus Verilog
$end
$timescale
	1s
$end
$scope module PROCESSOR_tb $end
$var wire 6 ! Ram_Data_Out [5:0] $end
$var reg 1 " Clk $end
$var reg 6 # Inst_Addr [5:0] $end
$var reg 21 $ Ram_Inst_In [20:0] $end
$var reg 1 % Ram_Inst_Write $end
$var reg 1 & Reset $end
$var integer 32 ' address [31:0] $end
$var integer 32 ( file [31:0] $end
$var integer 32 ) status [31:0] $end
$scope module Simple $end
$var wire 1 " Clk $end
$var wire 6 * Inst_Addr [5:0] $end
$var wire 21 + Ram_Inst_In [20:0] $end
$var wire 1 % Ram_Inst_Write $end
$var wire 1 & Reset $end
$var wire 1 , Reg_Load $end
$var wire 1 - Ram_Inst_Read $end
$var wire 21 . Ram_Inst_Out [20:0] $end
$var wire 1 / Ram_Data_Write $end
$var wire 1 0 Ram_Data_Read $end
$var wire 6 1 Ram_Data_Out [5:0] $end
$var wire 6 2 Ram_Data_In [5:0] $end
$var wire 6 3 Ram_Addr [5:0] $end
$var wire 1 4 PC_Load $end
$var wire 1 5 PC_Inc $end
$var wire 1 6 PC_Clr $end
$var wire 3 7 Opcode [2:0] $end
$var wire 1 8 Load_M $end
$var wire 1 9 Load_I $end
$var wire 1 : IR_Load $end
$var wire 1 ; Alu_Sub $end
$var wire 1 < Alu_Pass $end
$var wire 1 = Alu_Mul $end
$var wire 1 > Alu_Add $end
$scope module controller $end
$var wire 1 " Clk $end
$var wire 1 & Reset $end
$var wire 3 ? Opcode [2:0] $end
$var reg 1 > Alu_Add $end
$var reg 1 = Alu_Mul $end
$var reg 1 < Alu_Pass $end
$var reg 1 ; Alu_Sub $end
$var reg 1 : IR_Load $end
$var reg 1 9 Load_I $end
$var reg 1 8 Load_M $end
$var reg 3 @ NextState [2:0] $end
$var reg 1 6 PC_Clr $end
$var reg 1 5 PC_Inc $end
$var reg 1 4 PC_Load $end
$var reg 3 A PresentState [2:0] $end
$var reg 1 0 Ram_Data_Read $end
$var reg 1 / Ram_Data_Write $end
$var reg 1 - Ram_Inst_Read $end
$var reg 1 , Reg_Load $end
$upscope $end
$scope module datapath $end
$var wire 1 > Alu_Add $end
$var wire 1 = Alu_Mul $end
$var wire 1 < Alu_Pass $end
$var wire 1 ; Alu_Sub $end
$var wire 1 " Clk $end
$var wire 1 : IR_Load $end
$var wire 1 9 Load_I $end
$var wire 1 8 Load_M $end
$var wire 1 6 PC_Clr $end
$var wire 1 5 PC_Inc $end
$var wire 1 4 PC_Load $end
$var wire 1 0 Ram_Data_Read $end
$var wire 1 , Reg_Load $end
$var wire 6 B Source_Reg2 [5:0] $end
$var wire 6 C Source_Reg1 [5:0] $end
$var wire 6 D Reg_Data_In [5:0] $end
$var wire 6 E Reg2_Out [5:0] $end
$var wire 6 F Reg1_Out [5:0] $end
$var wire 21 G Ram_Inst_Out [20:0] $end
$var wire 6 H Ram_Data_Out [5:0] $end
$var wire 6 I Ram_Data_In [5:0] $end
$var wire 6 J Ram_Addr [5:0] $end
$var wire 6 K PC_Out [5:0] $end
$var wire 3 L Opcode [2:0] $end
$var wire 6 M Dest_Reg [5:0] $end
$var wire 6 N Alu_Out [5:0] $end
$scope module Data_Read_Mux $end
$var wire 1 0 Cond $end
$var wire 6 O True [5:0] $end
$var wire 6 P False [5:0] $end
$var reg 6 Q Out [5:0] $end
$upscope $end
$scope module Load_I_Mux $end
$var wire 1 9 Cond $end
$var wire 6 R False [5:0] $end
$var wire 6 S True [5:0] $end
$var reg 6 T Out [5:0] $end
$upscope $end
$scope module Load_M_Mux $end
$var wire 1 8 Cond $end
$var wire 6 U True [5:0] $end
$var wire 6 V False [5:0] $end
$var reg 6 W Out [5:0] $end
$upscope $end
$scope module arithmetic_logic_unit $end
$var wire 1 > Alu_Add $end
$var wire 1 = Alu_Mul $end
$var wire 1 < Alu_Pass $end
$var wire 1 ; Alu_Sub $end
$var wire 6 X Reg2_Out [5:0] $end
$var wire 6 Y Reg1_Out [5:0] $end
$var reg 6 Z Alu_Out [5:0] $end
$upscope $end
$scope module instruction_reg $end
$var wire 1 " Clk $end
$var wire 1 : IR_Load $end
$var wire 21 [ Ram_Inst_Out [20:0] $end
$var reg 6 \ Dest_Reg [5:0] $end
$var reg 3 ] Opcode [2:0] $end
$var reg 6 ^ Source_Reg1 [5:0] $end
$var reg 6 _ Source_Reg2 [5:0] $end
$upscope $end
$scope module program_counter $end
$var wire 1 " Clk $end
$var wire 6 ` Dest_Reg [5:0] $end
$var wire 1 6 PC_Clr $end
$var wire 1 5 PC_Inc $end
$var wire 1 4 PC_Load $end
$var reg 6 a PC_Out [5:0] $end
$upscope $end
$scope module registers $end
$var wire 1 " Clk $end
$var wire 6 b Dest_Reg [5:0] $end
$var wire 6 c Reg_Data_In [5:0] $end
$var wire 1 , Reg_Load $end
$var wire 6 d Source_Reg1 [5:0] $end
$var wire 6 e Source_Reg2 [5:0] $end
$var reg 6 f Reg1_Out [5:0] $end
$var reg 6 g Reg2_Out [5:0] $end
$upscope $end
$upscope $end
$scope module random_access_memory $end
$var wire 1 " Clk $end
$var wire 6 h Inst_Addr [5:0] $end
$var wire 6 i Ram_Addr [5:0] $end
$var wire 6 j Ram_Data_In [5:0] $end
$var wire 1 0 Ram_Data_Read $end
$var wire 1 / Ram_Data_Write $end
$var wire 21 k Ram_Inst_In [20:0] $end
$var wire 1 - Ram_Inst_Read $end
$var wire 1 % Ram_Inst_Write $end
$var reg 6 l Ram_Data_Out [5:0] $end
$var reg 21 m Ram_Inst_Out [20:0] $end
$upscope $end
$upscope $end
$upscope $end
$enddefinitions $end
#0
$dumpvars
bx m
bx l
bx k
b0 j
bx i
bx h
bx g
bx f
bx e
bx d
b0 c
bx b
bx a
bx `
bx _
bx ^
bx ]
bx \
bx [
b0 Z
bx Y
bx X
bx W
bx V
bx U
b0 T
bx S
b0 R
b0 Q
b0 P
bx O
b0 N
bx M
bx L
bx K
bx J
b0 I
bx H
bx G
bx F
bx E
b0 D
bx C
bx B
bx A
bx @
bx ?
0>
0=
0<
0;
0:
09
08
bx 7
06
05
04
bx 3
b0 2
bx 1
00
0/
bx .
0-
0,
bx +
bx *
bx )
b10000000000000000000000000000011 (
b0 '
1&
0%
bx $
bx #
0"
bx !
$end
#5
16
b0 @
b0 .
b0 G
b0 [
b0 m
b0 !
b0 1
b0 H
b0 O
b0 l
b0 A
b0 E
b0 X
b0 g
b0 F
b0 Y
b0 f
1"
#10
0"
b1 )
b10001010000000000000 $
b10001010000000000000 +
b10001010000000000000 k
b0 #
b0 *
b0 h
1%
#15
b0 3
b0 J
b0 W
b0 i
b0 K
b0 V
b0 a
1"
#20
0"
b1 '
0%
#25
1"
#30
0"
b10000101000000000001 $
b10000101000000000001 +
b10000101000000000001 k
b1 #
b1 *
b1 h
1%
#35
1"
#40
0"
b10 '
0%
#45
1"
#50
0"
b101000001000000000010 $
b101000001000000000010 +
b101000001000000000010 k
b10 #
b10 *
b10 h
1%
#55
1"
#60
0"
b11 '
0%
#65
1"
#70
0"
b0 $
b0 +
b0 k
b11 #
b11 *
b11 h
1%
#75
1"
#80
0"
b100 '
0%
#85
1"
#90
0"
b100 #
b100 *
b100 h
1%
#95
1"
#100
0"
b101 '
0%
#105
1"
#110
0"
b101 #
b101 *
b101 h
1%
#115
1"
#120
0"
b110 '
0%
#125
1"
#130
0"
b110 #
b110 *
b110 h
1%
#135
1"
#140
0"
b111 '
0%
#145
1"
#150
0"
b111 #
b111 *
b111 h
1%
#155
1"
#160
0"
b1000 '
0%
#165
1"
#170
0"
b1000 #
b1000 *
b1000 h
1%
#175
1"
#180
0"
b1001 '
0%
#185
1"
#190
0"
b1001 #
b1001 *
b1001 h
1%
#195
1"
#200
0"
b1010 '
0%
#205
1"
#210
0"
b1010 #
b1010 *
b1010 h
1%
#215
1"
#220
0"
b1011 '
0%
#225
1"
#230
0"
b1011 #
b1011 *
b1011 h
1%
#235
1"
#240
0"
b1100 '
0%
#245
1"
#250
0"
b1100 #
b1100 *
b1100 h
1%
#255
1"
#260
0"
b1101 '
0%
#265
1"
#270
0"
b1101 #
b1101 *
b1101 h
1%
#275
1"
#280
0"
b1110 '
0%
#285
1"
#290
0"
b1110 #
b1110 *
b1110 h
1%
#295
1"
#300
0"
b1111 '
0%
#305
1"
#310
0"
b1111 #
b1111 *
b1111 h
1%
#315
1"
#320
0"
b10000 '
0%
#325
1"
#330
0"
b10000 #
b10000 *
b10000 h
1%
#335
1"
#340
0"
b10001 '
0%
#345
1"
#350
0"
b10001 #
b10001 *
b10001 h
1%
#355
1"
#360
0"
b10010 '
0%
#365
1"
#370
0"
b10010 #
b10010 *
b10010 h
1%
#375
1"
#380
0"
b10011 '
0%
#385
1"
#390
0"
b10011 #
b10011 *
b10011 h
1%
#395
1"
#400
0"
b10100 '
0%
#405
1"
#410
0"
b10100 #
b10100 *
b10100 h
1%
#415
1"
#420
0"
b10101 '
0%
#425
1"
#430
0"
b10101 #
b10101 *
b10101 h
1%
#435
1"
#440
0"
b10110 '
0%
#445
1"
#450
0"
b10110 #
b10110 *
b10110 h
1%
#455
1"
#460
0"
b10111 '
0%
#465
1"
#470
0"
b10111 #
b10111 *
b10111 h
1%
#475
1"
#480
0"
b11000 '
0%
#485
1"
#490
0"
b11000 #
b11000 *
b11000 h
1%
#495
1"
#500
0"
b11001 '
0%
#505
1"
#510
0"
b11001 #
b11001 *
b11001 h
1%
#515
1"
#520
0"
b11010 '
0%
#525
1"
#530
0"
b11010 #
b11010 *
b11010 h
1%
#535
1"
#540
0"
b11011 '
0%
#545
1"
#550
0"
b11011 #
b11011 *
b11011 h
1%
#555
1"
#560
0"
b11100 '
0%
#565
1"
#570
0"
b11100 #
b11100 *
b11100 h
1%
#575
1"
#580
0"
b11101 '
0%
#585
1"
#590
0"
b11101 #
b11101 *
b11101 h
1%
#595
1"
#600
0"
b11110 '
0%
#605
1"
#610
0"
b11110 #
b11110 *
b11110 h
1%
#615
1"
#620
0"
b11111 '
0%
#625
1"
#630
0"
b11111 #
b11111 *
b11111 h
1%
#635
1"
#640
0"
b100000 '
0%
#645
1"
#650
0"
b100000 #
b100000 *
b100000 h
1%
#655
1"
#660
0"
b100001 '
0%
#665
1"
#670
0"
b100001 #
b100001 *
b100001 h
1%
#675
1"
#680
0"
b100010 '
0%
#685
1"
#690
0"
b100010 #
b100010 *
b100010 h
1%
#695
1"
#700
0"
b100011 '
0%
#705
1"
#710
0"
b100011 #
b100011 *
b100011 h
1%
#715
1"
#720
0"
b100100 '
0%
#725
1"
#730
0"
b100100 #
b100100 *
b100100 h
1%
#735
1"
#740
0"
b100101 '
0%
#745
1"
#750
0"
b100101 #
b100101 *
b100101 h
1%
#755
1"
#760
0"
b100110 '
0%
#765
1"
#770
0"
b100110 #
b100110 *
b100110 h
1%
#775
1"
#780
0"
b100111 '
0%
#785
1"
#790
0"
b100111 #
b100111 *
b100111 h
1%
#795
1"
#800
0"
b101000 '
0%
#805
1"
#810
0"
b101000 #
b101000 *
b101000 h
1%
#815
1"
#820
0"
b101001 '
0%
#825
1"
#830
0"
b101001 #
b101001 *
b101001 h
1%
#835
1"
#840
0"
b101010 '
0%
#845
1"
#850
0"
b101010 #
b101010 *
b101010 h
1%
#855
1"
#860
0"
b101011 '
0%
#865
1"
#870
0"
b101011 #
b101011 *
b101011 h
1%
#875
1"
#880
0"
b101100 '
0%
#885
1"
#890
0"
b101100 #
b101100 *
b101100 h
1%
#895
1"
#900
0"
b101101 '
0%
#905
1"
#910
0"
b101101 #
b101101 *
b101101 h
1%
#915
1"
#920
0"
b101110 '
0%
#925
1"
#930
0"
b101110 #
b101110 *
b101110 h
1%
#935
1"
#940
0"
b101111 '
0%
#945
1"
#950
0"
b101111 #
b101111 *
b101111 h
1%
#955
1"
#960
0"
b110000 '
0%
#965
1"
#970
0"
b110000 #
b110000 *
b110000 h
1%
#975
1"
#980
0"
b110001 '
0%
#985
1"
#990
0"
b110001 #
b110001 *
b110001 h
1%
#995
1"
#1000
0"
b110010 '
0%
#1005
1"
#1010
0"
b110010 #
b110010 *
b110010 h
1%
#1015
1"
#1020
0"
b110011 '
0%
#1025
1"
#1030
0"
b110011 #
b110011 *
b110011 h
1%
#1035
1"
#1040
0"
b110100 '
0%
#1045
1"
#1050
0"
b110100 #
b110100 *
b110100 h
1%
#1055
1"
#1060
0"
b110101 '
0%
#1065
1"
#1070
0"
b110101 #
b110101 *
b110101 h
1%
#1075
1"
#1080
0"
b110110 '
0%
#1085
1"
#1090
0"
b110110 #
b110110 *
b110110 h
1%
#1095
1"
#1100
0"
b110111 '
0%
#1105
1"
#1110
0"
b110111 #
b110111 *
b110111 h
1%
#1115
1"
#1120
0"
b111000 '
0%
#1125
1"
#1130
0"
b111000 #
b111000 *
b111000 h
1%
#1135
1"
#1140
0"
b111001 '
0%
#1145
1"
#1150
0"
b111001 #
b111001 *
b111001 h
1%
#1155
1"
#1160
0"
b111010 '
0%
#1165
1"
#1170
0"
b111010 #
b111010 *
b111010 h
1%
#1175
1"
#1180
0"
b111011 '
0%
#1185
1"
#1190
0"
b111011 #
b111011 *
b111011 h
1%
#1195
1"
#1200
0"
b111100 '
0%
#1205
1"
#1210
0"
b111100 #
b111100 *
b111100 h
1%
#1215
1"
#1220
0"
b111101 '
0%
#1225
1"
#1230
0"
b111101 #
b111101 *
b111101 h
1%
#1235
1"
#1240
0"
b111110 '
0%
#1245
1"
#1250
0"
b111110 #
b111110 *
b111110 h
1%
#1255
1"
#1260
0"
b111111 '
0%
#1265
1"
#1270
0"
b111111 #
b111111 *
b111111 h
1%
#1275
1"
#1280
16
b1 @
0"
0&
b1000000 '
0%
#1285
1-
06
b10 @
b1 A
1"
#1290
0"
#1295
1:
0-
b11 @
b10 A
b10001010000000000000 .
b10001010000000000000 G
b10001010000000000000 [
b10001010000000000000 m
1"
#1300
0"
#1305
b1010 D
b1010 T
b1010 c
1,
19
0:
b100 @
b0 .
b0 G
b0 [
b0 m
b11 A
b0 M
b0 \
b0 `
b0 b
b0 B
b0 _
b0 e
b1010 C
b1010 S
b1010 U
b1010 ^
b1010 d
b10 7
b10 ?
b10 L
b10 ]
1"
#1310
0"
#1315
15
19
1,
b1 @
bx E
bx X
bx g
b100 A
1"
#1320
0"
#1325
b0 D
b0 T
b0 c
1-
09
0,
05
b10 @
b1 3
b1 J
b1 W
b1 i
b1 A
b1 K
b1 V
b1 a
b1010 E
b1010 X
b1010 g
1"
#1330
0"
#1335
1:
0-
b11 @
b10 A
b10000101000000000001 .
b10000101000000000001 G
b10000101000000000001 [
b10000101000000000001 m
1"
#1340
0"
#1345
b101 D
b101 T
b101 c
1,
19
0:
b100 @
b0 .
b0 G
b0 [
b0 m
b11 A
b1 M
b1 \
b1 `
b1 b
b101 C
b101 S
b101 U
b101 ^
b101 d
1"
#1350
0"
#1355
15
19
1,
b1 @
bx F
bx Y
bx f
b100 A
1"
#1360
0"
#1365
b0 D
b0 T
b0 c
1-
09
0,
05
b10 @
b10 3
b10 J
b10 W
b10 i
b1 A
b10 K
b10 V
b10 a
1"
#1370
0"
#1375
1:
0-
b11 @
b10 A
b101000001000000000010 .
b101000001000000000010 G
b101000001000000000010 [
b101000001000000000010 m
1"
#1380
0"
#1385
bx D
bx T
bx c
bx 2
bx I
bx Q
bx R
bx j
bx N
bx P
bx Z
1,
1>
0:
b100 @
b0 .
b0 G
b0 [
b0 m
b11 A
b10 M
b10 \
b10 `
b10 b
b1 C
b1 S
b1 U
b1 ^
b1 d
b101 7
b101 ?
b101 L
b101 ]
1"
#1390
0"
#1395
15
1>
1,
b1111 D
b1111 T
b1111 c
b1111 2
b1111 I
b1111 Q
b1111 R
b1111 j
b1111 N
b1111 P
b1111 Z
b1 @
b101 F
b101 Y
b101 f
b100 A
1"
#1400
0"
#1405
b0 D
b0 T
b0 c
b0 2
b0 I
b0 Q
b0 R
b0 j
b0 N
b0 P
b0 Z
1-
0>
0,
05
b10 @
b11 3
b11 J
b11 W
b11 i
b1 A
b11 K
b11 V
b11 a
1"
#1410
0"
#1415
1:
0-
b11 @
b10 A
1"
#1420
0"
#1425
0:
b100 @
b11 A
b0 M
b0 \
b0 `
b0 b
b0 C
b0 S
b0 U
b0 ^
b0 d
b0 7
b0 ?
b0 L
b0 ]
1"
#1430
0"
#1435
b1 @
b1010 F
b1010 Y
b1010 f
b100 A
1"
#1440
0"
#1445
1-
b10 @
b1 A
1"
#1450
0"
#1455
1:
0-
b11 @
b10 A
1"
#1460
0"
#1465
0:
b100 @
b11 A
1"
#1470
0"
#1475
b1 @
b100 A
1"
#1480
0"
#1485
1-
b10 @
b1 A
1"
#1490
0"
#1495
1:
0-
b11 @
b10 A
1"
#1500
0"
#1505
0:
b100 @
b11 A
1"
#1510
0"
#1515
b1 @
b100 A
1"
#1520
0"
#1525
1-
b10 @
b1 A
1"
#1530
0"
#1535
1:
0-
b11 @
b10 A
1"
#1540
0"
#1545
0:
b100 @
b11 A
1"
#1550
0"
#1555
b1 @
b100 A
1"
#1560
0"
#1565
1-
b10 @
b1 A
1"
#1570
0"
#1575
1:
0-
b11 @
b10 A
1"
#1580
0"
#1585
0:
b100 @
b11 A
1"
#1590
0"
#1595
b1 @
b100 A
1"
#1600
0"
#1605
1-
b10 @
b1 A
1"
#1610
0"
#1615
1:
0-
b11 @
b10 A
1"
#1620
0"
#1625
0:
b100 @
b11 A
1"
#1630
0"
#1635
b1 @
b100 A
1"
#1640
0"
#1645
1-
b10 @
b1 A
1"
#1650
0"
#1655
1:
0-
b11 @
b10 A
1"
#1660
0"
#1665
0:
b100 @
b11 A
1"
#1670
0"
#1675
b1 @
b100 A
1"
#1680
0"
#1685
1-
b10 @
b1 A
1"
#1690
0"
#1695
1:
0-
b11 @
b10 A
1"
#1700
0"
#1705
0:
b100 @
b11 A
1"
#1710
0"
#1715
b1 @
b100 A
1"
#1720
0"
#1725
1-
b10 @
b1 A
1"
#1730
0"
#1735
1:
0-
b11 @
b10 A
1"
#1740
0"
#1745
0:
b100 @
b11 A
1"
#1750
0"
#1755
b1 @
b100 A
1"
#1760
0"
#1765
1-
b10 @
b1 A
1"
#1770
0"
#1775
1:
0-
b11 @
b10 A
1"
#1780
0"
#1785
0:
b100 @
b11 A
1"
#1790
0"
#1795
b1 @
b100 A
1"
#1800
0"
#1805
1-
b10 @
b1 A
1"
#1810
0"
#1815
1:
0-
b11 @
b10 A
1"
#1820
0"
#1825
0:
b100 @
b11 A
1"
#1830
0"
#1835
b1 @
b100 A
1"
#1840
0"
#1845
1-
b10 @
b1 A
1"
#1850
0"
#1855
1:
0-
b11 @
b10 A
1"
#1860
0"
#1865
0:
b100 @
b11 A
1"
#1870
0"
#1875
b1 @
b100 A
1"
#1880
0"
#1885
1-
b10 @
b1 A
1"
#1890
0"
#1895
1:
0-
b11 @
b10 A
1"
#1900
0"
#1905
0:
b100 @
b11 A
1"
#1910
0"
#1915
b1 @
b100 A
1"
#1920
0"
#1925
1-
b10 @
b1 A
1"
#1930
0"
#1935
1:
0-
b11 @
b10 A
1"
#1940
0"
#1945
0:
b100 @
b11 A
1"
#1950
0"
#1955
b1 @
b100 A
1"
#1960
0"
#1965
1-
b10 @
b1 A
1"
#1970
0"
#1975
1:
0-
b11 @
b10 A
1"
#1980
0"
#1985
0:
b100 @
b11 A
1"
#1990
0"
#1995
b1 @
b100 A
1"
#2000
0"
#2005
1-
b10 @
b1 A
1"
#2010
0"
#2015
1:
0-
b11 @
b10 A
1"
#2020
0"
#2025
0:
b100 @
b11 A
1"
#2030
0"
#2035
b1 @
b100 A
1"
#2040
0"
#2045
1-
b10 @
b1 A
1"
#2050
0"
#2055
1:
0-
b11 @
b10 A
1"
#2060
0"
#2065
0:
b100 @
b11 A
1"
#2070
0"
#2075
b1 @
b100 A
1"
#2080
0"
#2085
1-
b10 @
b1 A
1"
#2090
0"
#2095
1:
0-
b11 @
b10 A
1"
#2100
0"
#2105
0:
b100 @
b11 A
1"
#2110
0"
#2115
b1 @
b100 A
1"
#2120
0"
#2125
1-
b10 @
b1 A
1"
#2130
0"
#2135
1:
0-
b11 @
b10 A
1"
#2140
0"
#2145
0:
b100 @
b11 A
1"
#2150
0"
#2155
b1 @
b100 A
1"
#2160
0"
#2165
1-
b10 @
b1 A
1"
#2170
0"
#2175
1:
0-
b11 @
b10 A
1"
#2180
0"
#2185
0:
b100 @
b11 A
1"
#2190
0"
#2195
b1 @
b100 A
1"
#2200
0"
#2205
1-
b10 @
b1 A
1"
#2210
0"
#2215
1:
0-
b11 @
b10 A
1"
#2220
0"
#2225
0:
b100 @
b11 A
1"
#2230
0"
#2235
b1 @
b100 A
1"
#2240
0"
#2245
1-
b10 @
b1 A
1"
#2250
0"
#2255
1:
0-
b11 @
b10 A
1"
#2260
0"
#2265
0:
b100 @
b11 A
1"
#2270
0"
#2275
b1 @
b100 A
1"
#2280
0"
#2285
1-
b10 @
b1 A
1"
#2290
0"
#2295
1:
0-
b11 @
b10 A
1"
#2300
0"
#2305
0:
b100 @
b11 A
1"
#2310
0"
#2315
b1 @
b100 A
1"
#2320
0"
#2325
1-
b10 @
b1 A
1"
#2330
0"
#2335
1:
0-
b11 @
b10 A
1"
#2340
0"
#2345
0:
b100 @
b11 A
1"
#2350
0"
#2355
b1 @
b100 A
1"
#2360
0"
#2365
1-
b10 @
b1 A
1"
#2370
0"
#2375
1:
0-
b11 @
b10 A
1"
#2380
0"
#2385
0:
b100 @
b11 A
1"
#2390
0"
#2395
b1 @
b100 A
1"
#2400
0"
#2405
1-
b10 @
b1 A
1"
#2410
0"
#2415
1:
0-
b11 @
b10 A
1"
#2420
0"
#2425
0:
b100 @
b11 A
1"
#2430
0"
#2435
b1 @
b100 A
1"
#2440
0"
#2445
1-
b10 @
b1 A
1"
#2450
0"
#2455
1:
0-
b11 @
b10 A
1"
#2460
0"
#2465
0:
b100 @
b11 A
1"
#2470
0"
#2475
b1 @
b100 A
1"
#2480
0"
#2485
1-
b10 @
b1 A
1"
#2490
0"
#2495
1:
0-
b11 @
b10 A
1"
#2500
0"
#2505
0:
b100 @
b11 A
1"
#2510
0"
#2515
b1 @
b100 A
1"
#2520
0"
#2525
1-
b10 @
b1 A
1"
#2530
0"
#2535
1:
0-
b11 @
b10 A
1"
#2540
0"
#2545
0:
b100 @
b11 A
1"
#2550
0"
#2555
b1 @
b100 A
1"
#2560
0"
#2565
1-
b10 @
b1 A
1"
#2570
0"
#2575
1:
0-
b11 @
b10 A
1"
#2580
0"
#2585
0:
b100 @
b11 A
1"
#2590
0"
#2595
b1 @
b100 A
1"
#2600
0"
#2605
1-
b10 @
b1 A
1"
#2610
0"
#2615
1:
0-
b11 @
b10 A
1"
#2620
0"
#2625
0:
b100 @
b11 A
1"
#2630
0"
#2635
b1 @
b100 A
1"
#2640
0"
#2645
1-
b10 @
b1 A
1"
#2650
0"
#2655
1:
0-
b11 @
b10 A
1"
#2660
0"
#2665
0:
b100 @
b11 A
1"
#2670
0"
#2675
b1 @
b100 A
1"
#2680
0"
#2685
1-
b10 @
b1 A
1"
#2690
0"
#2695
1:
0-
b11 @
b10 A
1"
#2700
0"
#2705
0:
b100 @
b11 A
1"
#2710
0"
#2715
b1 @
b100 A
1"
#2720
0"
#2725
1-
b10 @
b1 A
1"
#2730
0"
#2735
1:
0-
b11 @
b10 A
1"
#2740
0"
#2745
0:
b100 @
b11 A
1"
#2750
0"
#2755
b1 @
b100 A
1"
#2760
0"
#2765
1-
b10 @
b1 A
1"
#2770
0"
#2775
1:
0-
b11 @
b10 A
1"
#2780
0"
#2785
0:
b100 @
b11 A
1"
#2790
0"
#2795
b1 @
b100 A
1"
#2800
0"
#2805
1-
b10 @
b1 A
1"
#2810
0"
#2815
1:
0-
b11 @
b10 A
1"
#2820
0"
#2825
0:
b100 @
b11 A
1"
#2830
0"
#2835
b1 @
b100 A
1"
#2840
0"
#2845
1-
b10 @
b1 A
1"
#2850
0"
#2855
1:
0-
b11 @
b10 A
1"
#2860
0"
#2865
0:
b100 @
b11 A
1"
#2870
0"
#2875
b1 @
b100 A
1"
#2880
0"
#2885
1-
b10 @
b1 A
1"
#2890
0"
#2895
1:
0-
b11 @
b10 A
1"
#2900
0"
#2905
0:
b100 @
b11 A
1"
#2910
0"
#2915
b1 @
b100 A
1"
#2920
0"
#2925
1-
b10 @
b1 A
1"
#2930
0"
#2935
1:
0-
b11 @
b10 A
1"
#2940
0"
#2945
0:
b100 @
b11 A
1"
#2950
0"
#2955
b1 @
b100 A
1"
#2960
0"
#2965
1-
b10 @
b1 A
1"
#2970
0"
#2975
1:
0-
b11 @
b10 A
1"
#2980
0"
#2985
0:
b100 @
b11 A
1"
#2990
0"
#2995
b1 @
b100 A
1"
#3000
0"
#3005
1-
b10 @
b1 A
1"
#3010
0"
#3015
1:
0-
b11 @
b10 A
1"
#3020
0"
#3025
0:
b100 @
b11 A
1"
#3030
0"
#3035
b1 @
b100 A
1"
#3040
0"
#3045
1-
b10 @
b1 A
1"
#3050
0"
#3055
1:
0-
b11 @
b10 A
1"
#3060
0"
#3065
0:
b100 @
b11 A
1"
#3070
0"
#3075
b1 @
b100 A
1"
#3080
0"
#3085
1-
b10 @
b1 A
1"
#3090
0"
#3095
1:
0-
b11 @
b10 A
1"
#3100
0"
#3105
0:
b100 @
b11 A
1"
#3110
0"
#3115
b1 @
b100 A
1"
#3120
0"
#3125
1-
b10 @
b1 A
1"
#3130
0"
#3135
1:
0-
b11 @
b10 A
1"
#3140
0"
#3145
0:
b100 @
b11 A
1"
#3150
0"
#3155
b1 @
b100 A
1"
#3160
0"
#3165
1-
b10 @
b1 A
1"
#3170
0"
#3175
1:
0-
b11 @
b10 A
1"
#3180
0"
#3185
0:
b100 @
b11 A
1"
#3190
0"
#3195
b1 @
b100 A
1"
#3200
0"
#3205
1-
b10 @
b1 A
1"
#3210
0"
#3215
1:
0-
b11 @
b10 A
1"
#3220
0"
#3225
0:
b100 @
b11 A
1"
#3230
0"
#3235
b1 @
b100 A
1"
#3240
0"
#3245
1-
b10 @
b1 A
1"
#3250
0"
#3255
1:
0-
b11 @
b10 A
1"
#3260
0"
#3265
0:
b100 @
b11 A
1"
#3270
0"
#3275
b1 @
b100 A
1"
#3280
0"
#3285
1-
b10 @
b1 A
1"
#3290
0"
#3295
1:
0-
b11 @
b10 A
1"
#3300
0"
#3305
0:
b100 @
b11 A
1"
#3310
0"
#3315
b1 @
b100 A
1"
#3320
0"
#3325
1-
b10 @
b1 A
1"
#3330
0"
#3335
1:
0-
b11 @
b10 A
1"
#3340
0"
#3345
0:
b100 @
b11 A
1"
#3350
0"
#3355
b1 @
b100 A
1"
#3360
0"
#3365
1-
b10 @
b1 A
1"
#3370
0"
#3375
1:
0-
b11 @
b10 A
1"
#3380
0"
#3385
0:
b100 @
b11 A
1"
#3390
0"
#3395
b1 @
b100 A
1"
#3400
0"
#3405
1-
b10 @
b1 A
1"
#3410
0"
#3415
1:
0-
b11 @
b10 A
1"
#3420
0"
#3425
0:
b100 @
b11 A
1"
#3430
0"
#3435
b1 @
b100 A
1"
#3440
0"
#3445
1-
b10 @
b1 A
1"
#3450
0"
#3455
1:
0-
b11 @
b10 A
1"
#3460
0"
#3465
0:
b100 @
b11 A
1"
#3470
0"
#3475
b1 @
b100 A
1"
#3480
0"
#3485
1-
b10 @
b1 A
1"
#3490
0"
#3495
1:
0-
b11 @
b10 A
1"
#3500
0"
#3505
0:
b100 @
b11 A
1"
#3510
0"
#3515
b1 @
b100 A
1"
#3520
0"
#3525
1-
b10 @
b1 A
1"
#3530
0"
#3535
1:
0-
b11 @
b10 A
1"
#3540
0"
#3545
0:
b100 @
b11 A
1"
#3550
0"
#3555
b1 @
b100 A
1"
#3560
0"
#3565
1-
b10 @
b1 A
1"
#3570
0"
#3575
1:
0-
b11 @
b10 A
1"
#3580
0"
#3585
0:
b100 @
b11 A
1"
#3590
0"
#3595
b1 @
b100 A
1"
#3600
0"
#3605
1-
b10 @
b1 A
1"
#3610
0"
#3615
1:
0-
b11 @
b10 A
1"
#3620
0"
#3625
0:
b100 @
b11 A
1"
#3630
0"
#3635
b1 @
b100 A
1"
#3640
0"
#3645
1-
b10 @
b1 A
1"
#3650
0"
#3655
1:
0-
b11 @
b10 A
1"
#3660
0"
#3665
0:
b100 @
b11 A
1"
#3670
0"
#3675
b1 @
b100 A
1"
#3680
0"
#3685
1-
b10 @
b1 A
1"
#3690
0"
#3695
1:
0-
b11 @
b10 A
1"
#3700
0"
#3705
0:
b100 @
b11 A
1"
#3710
0"
#3715
b1 @
b100 A
1"
#3720
0"
#3725
1-
b10 @
b1 A
1"
#3730
0"
#3735
1:
0-
b11 @
b10 A
1"
#3740
0"
#3745
0:
b100 @
b11 A
1"
#3750
0"
#3755
b1 @
b100 A
1"
#3760
0"
#3765
1-
b10 @
b1 A
1"
#3770
0"
#3775
1:
0-
b11 @
b10 A
1"
#3780
0"
#3785
0:
b100 @
b11 A
1"
#3790
0"
#3795
b1 @
b100 A
1"
#3800
0"
#3805
1-
b10 @
b1 A
1"
#3810
0"
#3815
1:
0-
b11 @
b10 A
1"
#3820
0"
#3825
0:
b100 @
b11 A
1"
#3830
0"
#3835
b1 @
b100 A
1"
#3840
0"
#3845
1-
b10 @
b1 A
1"
#3850
0"
#3855
1:
0-
b11 @
b10 A
1"
#3860
0"
#3865
0:
b100 @
b11 A
1"
#3870
0"
#3875
b1 @
b100 A
1"
#3880
0"
#3885
1-
b10 @
b1 A
1"
#3890
0"
#3895
1:
0-
b11 @
b10 A
1"
#3900
0"
#3905
0:
b100 @
b11 A
1"
#3910
0"
#3915
b1 @
b100 A
1"
#3920
0"
